module gitlab.com/sanichsan/golang-socket-io

go 1.20

require (
	github.com/gofrs/uuid v4.0.0+incompatible // indirect
	github.com/gomodule/redigo v1.8.4 // indirect
	github.com/googollee/go-socket.io v1.7.0 // indirect
	github.com/gorilla/websocket v1.4.2 // indirect
)
